^C:\USERS\CHRISTOS\DESKTOP\MYPROJECTS\AUEB-GRAPHICS-PROJECT\LAB6\SOURCE\COLLIDABLENODE.CPP|C:\USERS\CHRISTOS\DESKTOP\MYPROJECTS\AUEB-GRAPHICS-PROJECT\LAB6\SOURCE\GEOMETRICMESH.CPP|C:\USERS\CHRISTOS\DESKTOP\MYPROJECTS\AUEB-GRAPHICS-PROJECT\LAB6\SOURCE\GEOMETRYNODE.CPP|C:\USERS\CHRISTOS\DESKTOP\MYPROJECTS\AUEB-GRAPHICS-PROJECT\LAB6\SOURCE\LIGHTNODE.CPP|C:\USERS\CHRISTOS\DESKTOP\MYPROJECTS\AUEB-GRAPHICS-PROJECT\LAB6\SOURCE\MAIN.CPP|C:\USERS\CHRISTOS\DESKTOP\MYPROJECTS\AUEB-GRAPHICS-PROJECT\LAB6\SOURCE\OBJLOADER.CPP|C:\USERS\CHRISTOS\DESKTOP\MYPROJECTS\AUEB-GRAPHICS-PROJECT\LAB6\SOURCE\RENDERER.CPP|C:\USERS\CHRISTOS\DESKTOP\MYPROJECTS\AUEB-GRAPHICS-PROJECT\LAB6\SOURCE\SHADERPROGRAM.CPP|C:\USERS\CHRISTOS\DESKTOP\MYPROJECTS\AUEB-GRAPHICS-PROJECT\LAB6\SOURCE\TEXTUREMANAGER.CPP|C:\USERS\CHRISTOS\DESKTOP\MYPROJECTS\AUEB-GRAPHICS-PROJECT\LAB6\SOURCE\TOOLS.CPP
C:\USERS\CHRISTOS\DESKTOP\MYPROJECTS\AUEB-GRAPHICS-PROJECT\LAB6\X64\DEBUG\VC142.PDB
C:\USERS\CHRISTOS\DESKTOP\MYPROJECTS\AUEB-GRAPHICS-PROJECT\LAB6\X64\DEBUG\VC142.IDB
C:\USERS\CHRISTOS\DESKTOP\MYPROJECTS\AUEB-GRAPHICS-PROJECT\LAB6\X64\DEBUG\TOOLS.OBJ
C:\USERS\CHRISTOS\DESKTOP\MYPROJECTS\AUEB-GRAPHICS-PROJECT\LAB6\X64\DEBUG\TEXTUREMANAGER.OBJ
C:\USERS\CHRISTOS\DESKTOP\MYPROJECTS\AUEB-GRAPHICS-PROJECT\LAB6\X64\DEBUG\SHADERPROGRAM.OBJ
C:\USERS\CHRISTOS\DESKTOP\MYPROJECTS\AUEB-GRAPHICS-PROJECT\LAB6\X64\DEBUG\RENDERER.OBJ
C:\USERS\CHRISTOS\DESKTOP\MYPROJECTS\AUEB-GRAPHICS-PROJECT\LAB6\X64\DEBUG\OBJLOADER.OBJ
C:\USERS\CHRISTOS\DESKTOP\MYPROJECTS\AUEB-GRAPHICS-PROJECT\LAB6\X64\DEBUG\MAIN.OBJ
C:\USERS\CHRISTOS\DESKTOP\MYPROJECTS\AUEB-GRAPHICS-PROJECT\LAB6\X64\DEBUG\LIGHTNODE.OBJ
C:\USERS\CHRISTOS\DESKTOP\MYPROJECTS\AUEB-GRAPHICS-PROJECT\LAB6\X64\DEBUG\GEOMETRYNODE.OBJ
C:\USERS\CHRISTOS\DESKTOP\MYPROJECTS\AUEB-GRAPHICS-PROJECT\LAB6\X64\DEBUG\GEOMETRICMESH.OBJ
C:\USERS\CHRISTOS\DESKTOP\MYPROJECTS\AUEB-GRAPHICS-PROJECT\LAB6\X64\DEBUG\COLLIDABLENODE.OBJ
^C:\USERS\CHRISTOS\DESKTOP\MYPROJECTS\AUEB-GRAPHICS-PROJECT\LAB6\SOURCE\COLLIDABLENODE.CPP
C:\USERS\CHRISTOS\DESKTOP\MYPROJECTS\AUEB-GRAPHICS-PROJECT\LAB6\X64\DEBUG\VC142.PDB
^C:\USERS\CHRISTOS\DESKTOP\MYPROJECTS\AUEB-GRAPHICS-PROJECT\LAB6\SOURCE\GEOMETRICMESH.CPP
C:\USERS\CHRISTOS\DESKTOP\MYPROJECTS\AUEB-GRAPHICS-PROJECT\LAB6\X64\DEBUG\VC142.PDB
^C:\USERS\CHRISTOS\DESKTOP\MYPROJECTS\AUEB-GRAPHICS-PROJECT\LAB6\SOURCE\GEOMETRYNODE.CPP
C:\USERS\CHRISTOS\DESKTOP\MYPROJECTS\AUEB-GRAPHICS-PROJECT\LAB6\X64\DEBUG\VC142.PDB
^C:\USERS\CHRISTOS\DESKTOP\MYPROJECTS\AUEB-GRAPHICS-PROJECT\LAB6\SOURCE\LIGHTNODE.CPP
C:\USERS\CHRISTOS\DESKTOP\MYPROJECTS\AUEB-GRAPHICS-PROJECT\LAB6\X64\DEBUG\VC142.PDB
^C:\USERS\CHRISTOS\DESKTOP\MYPROJECTS\AUEB-GRAPHICS-PROJECT\LAB6\SOURCE\OBJLOADER.CPP
C:\USERS\CHRISTOS\DESKTOP\MYPROJECTS\AUEB-GRAPHICS-PROJECT\LAB6\X64\DEBUG\VC142.PDB
^C:\USERS\CHRISTOS\DESKTOP\MYPROJECTS\AUEB-GRAPHICS-PROJECT\LAB6\SOURCE\TEXTUREMANAGER.CPP
C:\USERS\CHRISTOS\DESKTOP\MYPROJECTS\AUEB-GRAPHICS-PROJECT\LAB6\X64\DEBUG\VC142.PDB
^C:\USERS\CHRISTOS\DESKTOP\MYPROJECTS\AUEB-GRAPHICS-PROJECT\LAB6\SOURCE\TOOLS.CPP
C:\USERS\CHRISTOS\DESKTOP\MYPROJECTS\AUEB-GRAPHICS-PROJECT\LAB6\X64\DEBUG\VC142.PDB
^C:\USERS\CHRISTOS\DESKTOP\MYPROJECTS\AUEB-GRAPHICS-PROJECT\LAB6\SOURCE\MAIN.CPP|C:\USERS\CHRISTOS\DESKTOP\MYPROJECTS\AUEB-GRAPHICS-PROJECT\LAB6\SOURCE\RENDERER.CPP|C:\USERS\CHRISTOS\DESKTOP\MYPROJECTS\AUEB-GRAPHICS-PROJECT\LAB6\SOURCE\SHADERPROGRAM.CPP
C:\USERS\CHRISTOS\DESKTOP\MYPROJECTS\AUEB-GRAPHICS-PROJECT\LAB6\X64\DEBUG\VC142.PDB
C:\USERS\CHRISTOS\DESKTOP\MYPROJECTS\AUEB-GRAPHICS-PROJECT\LAB6\X64\DEBUG\VC142.IDB
C:\USERS\CHRISTOS\DESKTOP\MYPROJECTS\AUEB-GRAPHICS-PROJECT\LAB6\X64\DEBUG\MAIN.OBJ
C:\USERS\CHRISTOS\DESKTOP\MYPROJECTS\AUEB-GRAPHICS-PROJECT\LAB6\X64\DEBUG\SHADERPROGRAM.OBJ
C:\USERS\CHRISTOS\DESKTOP\MYPROJECTS\AUEB-GRAPHICS-PROJECT\LAB6\X64\DEBUG\RENDERER.OBJ
^C:\USERS\CHRISTOS\DESKTOP\MYPROJECTS\AUEB-GRAPHICS-PROJECT\LAB6\SOURCE\SHADERPROGRAM.CPP
C:\USERS\CHRISTOS\DESKTOP\MYPROJECTS\AUEB-GRAPHICS-PROJECT\LAB6\X64\DEBUG\VC142.PDB
^C:\USERS\CHRISTOS\DESKTOP\MYPROJECTS\AUEB-GRAPHICS-PROJECT\LAB6\SOURCE\MAIN.CPP
C:\USERS\CHRISTOS\DESKTOP\MYPROJECTS\AUEB-GRAPHICS-PROJECT\LAB6\X64\DEBUG\VC142.PDB
^C:\USERS\CHRISTOS\DESKTOP\MYPROJECTS\AUEB-GRAPHICS-PROJECT\LAB6\SOURCE\RENDERER.CPP
C:\USERS\CHRISTOS\DESKTOP\MYPROJECTS\AUEB-GRAPHICS-PROJECT\LAB6\X64\DEBUG\VC142.PDB
C:\USERS\CHRISTOS\DESKTOP\MYPROJECTS\AUEB-GRAPHICS-PROJECT\LAB6\X64\DEBUG\VC142.IDB
C:\USERS\CHRISTOS\DESKTOP\MYPROJECTS\AUEB-GRAPHICS-PROJECT\LAB6\X64\DEBUG\RENDERER.OBJ
