^C:\USERS\CHRISTOS\DESKTOP\MYPROJECTS\AUEB-GRAPHICS-PROJECT\LAB6\SOURCE\GEOMETRICMESH.CPP
/c /I"C:\USERS\CHRISTOS\DESKTOP\MYPROJECTS\AUEB-GRAPHICS-PROJECT\LAB6\3RD PARTY\INCLUDES\\" /Zi /nologo /W3 /WX- /diagnostics:column /sdl /O2 /Oi /GL /D _CRT_SECURE_NO_WARNINGS /Gm- /EHsc /MD /GS /Gy /fp:precise /permissive- /Zc:wchar_t /Zc:forScope /Zc:inline /Fo"X64\RELEASE\\" /Fd"X64\RELEASE\VC142.PDB" /Gd /TP /FC C:\USERS\CHRISTOS\DESKTOP\MYPROJECTS\AUEB-GRAPHICS-PROJECT\LAB6\SOURCE\GEOMETRICMESH.CPP
^C:\USERS\CHRISTOS\DESKTOP\MYPROJECTS\AUEB-GRAPHICS-PROJECT\LAB6\SOURCE\LIGHTNODE.CPP
/c /I"C:\USERS\CHRISTOS\DESKTOP\MYPROJECTS\AUEB-GRAPHICS-PROJECT\LAB6\3RD PARTY\INCLUDES\\" /Zi /nologo /W3 /WX- /diagnostics:column /sdl /O2 /Oi /GL /D _CRT_SECURE_NO_WARNINGS /Gm- /EHsc /MD /GS /Gy /fp:precise /permissive- /Zc:wchar_t /Zc:forScope /Zc:inline /Fo"X64\RELEASE\\" /Fd"X64\RELEASE\VC142.PDB" /Gd /TP /FC C:\USERS\CHRISTOS\DESKTOP\MYPROJECTS\AUEB-GRAPHICS-PROJECT\LAB6\SOURCE\LIGHTNODE.CPP
^C:\USERS\CHRISTOS\DESKTOP\MYPROJECTS\AUEB-GRAPHICS-PROJECT\LAB6\SOURCE\OBJLOADER.CPP
/c /I"C:\USERS\CHRISTOS\DESKTOP\MYPROJECTS\AUEB-GRAPHICS-PROJECT\LAB6\3RD PARTY\INCLUDES\\" /Zi /nologo /W3 /WX- /diagnostics:column /sdl /O2 /Oi /GL /D _CRT_SECURE_NO_WARNINGS /Gm- /EHsc /MD /GS /Gy /fp:precise /permissive- /Zc:wchar_t /Zc:forScope /Zc:inline /Fo"X64\RELEASE\\" /Fd"X64\RELEASE\VC142.PDB" /Gd /TP /FC C:\USERS\CHRISTOS\DESKTOP\MYPROJECTS\AUEB-GRAPHICS-PROJECT\LAB6\SOURCE\OBJLOADER.CPP
^C:\USERS\CHRISTOS\DESKTOP\MYPROJECTS\AUEB-GRAPHICS-PROJECT\LAB6\SOURCE\TEXTUREMANAGER.CPP
/c /I"C:\USERS\CHRISTOS\DESKTOP\MYPROJECTS\AUEB-GRAPHICS-PROJECT\LAB6\3RD PARTY\INCLUDES\\" /Zi /nologo /W3 /WX- /diagnostics:column /sdl /O2 /Oi /GL /D _CRT_SECURE_NO_WARNINGS /Gm- /EHsc /MD /GS /Gy /fp:precise /permissive- /Zc:wchar_t /Zc:forScope /Zc:inline /Fo"X64\RELEASE\\" /Fd"X64\RELEASE\VC142.PDB" /Gd /TP /FC C:\USERS\CHRISTOS\DESKTOP\MYPROJECTS\AUEB-GRAPHICS-PROJECT\LAB6\SOURCE\TEXTUREMANAGER.CPP
^C:\USERS\CHRISTOS\DESKTOP\MYPROJECTS\AUEB-GRAPHICS-PROJECT\LAB6\SOURCE\TOOLS.CPP
/c /I"C:\USERS\CHRISTOS\DESKTOP\MYPROJECTS\AUEB-GRAPHICS-PROJECT\LAB6\3RD PARTY\INCLUDES\\" /Zi /nologo /W3 /WX- /diagnostics:column /sdl /O2 /Oi /GL /D _CRT_SECURE_NO_WARNINGS /Gm- /EHsc /MD /GS /Gy /fp:precise /permissive- /Zc:wchar_t /Zc:forScope /Zc:inline /Fo"X64\RELEASE\\" /Fd"X64\RELEASE\VC142.PDB" /Gd /TP /FC C:\USERS\CHRISTOS\DESKTOP\MYPROJECTS\AUEB-GRAPHICS-PROJECT\LAB6\SOURCE\TOOLS.CPP
^C:\USERS\CHRISTOS\DESKTOP\MYPROJECTS\AUEB-GRAPHICS-PROJECT\LAB6\SOURCE\SHADERPROGRAM.CPP
/c /I"C:\USERS\CHRISTOS\DESKTOP\MYPROJECTS\AUEB-GRAPHICS-PROJECT\LAB6\3RD PARTY\INCLUDES\\" /Zi /nologo /W3 /WX- /diagnostics:column /sdl /O2 /Oi /GL /D _CRT_SECURE_NO_WARNINGS /Gm- /EHsc /MD /GS /Gy /fp:precise /permissive- /Zc:wchar_t /Zc:forScope /Zc:inline /Fo"X64\RELEASE\\" /Fd"X64\RELEASE\VC142.PDB" /Gd /TP /FC C:\USERS\CHRISTOS\DESKTOP\MYPROJECTS\AUEB-GRAPHICS-PROJECT\LAB6\SOURCE\SHADERPROGRAM.CPP
^C:\USERS\CHRISTOS\DESKTOP\MYPROJECTS\AUEB-GRAPHICS-PROJECT\LAB6\SOURCE\COLLIDABLENODE.CPP
/c /I"C:\USERS\CHRISTOS\DESKTOP\MYPROJECTS\AUEB-GRAPHICS-PROJECT\LAB6\3RD PARTY\INCLUDES\\" /Zi /nologo /W3 /WX- /diagnostics:column /sdl /O2 /Oi /GL /D _CRT_SECURE_NO_WARNINGS /Gm- /EHsc /MD /GS /Gy /fp:precise /permissive- /Zc:wchar_t /Zc:forScope /Zc:inline /Fo"X64\RELEASE\\" /Fd"X64\RELEASE\VC142.PDB" /Gd /TP /FC C:\USERS\CHRISTOS\DESKTOP\MYPROJECTS\AUEB-GRAPHICS-PROJECT\LAB6\SOURCE\COLLIDABLENODE.CPP
^C:\USERS\CHRISTOS\DESKTOP\MYPROJECTS\AUEB-GRAPHICS-PROJECT\LAB6\SOURCE\GEOMETRYNODE.CPP
/c /I"C:\USERS\CHRISTOS\DESKTOP\MYPROJECTS\AUEB-GRAPHICS-PROJECT\LAB6\3RD PARTY\INCLUDES\\" /Zi /nologo /W3 /WX- /diagnostics:column /sdl /O2 /Oi /GL /D _CRT_SECURE_NO_WARNINGS /Gm- /EHsc /MD /GS /Gy /fp:precise /permissive- /Zc:wchar_t /Zc:forScope /Zc:inline /Fo"X64\RELEASE\\" /Fd"X64\RELEASE\VC142.PDB" /Gd /TP /FC C:\USERS\CHRISTOS\DESKTOP\MYPROJECTS\AUEB-GRAPHICS-PROJECT\LAB6\SOURCE\GEOMETRYNODE.CPP
^C:\USERS\CHRISTOS\DESKTOP\MYPROJECTS\AUEB-GRAPHICS-PROJECT\LAB6\SOURCE\MAIN.CPP
/c /I"C:\USERS\CHRISTOS\DESKTOP\MYPROJECTS\AUEB-GRAPHICS-PROJECT\LAB6\3RD PARTY\INCLUDES\\" /Zi /nologo /W3 /WX- /diagnostics:column /sdl /O2 /Oi /GL /D _CRT_SECURE_NO_WARNINGS /Gm- /EHsc /MD /GS /Gy /fp:precise /permissive- /Zc:wchar_t /Zc:forScope /Zc:inline /Fo"X64\RELEASE\\" /Fd"X64\RELEASE\VC142.PDB" /Gd /TP /FC C:\USERS\CHRISTOS\DESKTOP\MYPROJECTS\AUEB-GRAPHICS-PROJECT\LAB6\SOURCE\MAIN.CPP
^C:\USERS\CHRISTOS\DESKTOP\MYPROJECTS\AUEB-GRAPHICS-PROJECT\LAB6\SOURCE\RENDERER.CPP
/c /I"C:\USERS\CHRISTOS\DESKTOP\MYPROJECTS\AUEB-GRAPHICS-PROJECT\LAB6\3RD PARTY\INCLUDES\\" /Zi /nologo /W3 /WX- /diagnostics:column /sdl /O2 /Oi /GL /D _CRT_SECURE_NO_WARNINGS /Gm- /EHsc /MD /GS /Gy /fp:precise /permissive- /Zc:wchar_t /Zc:forScope /Zc:inline /Fo"X64\RELEASE\\" /Fd"X64\RELEASE\VC142.PDB" /Gd /TP /FC C:\USERS\CHRISTOS\DESKTOP\MYPROJECTS\AUEB-GRAPHICS-PROJECT\LAB6\SOURCE\RENDERER.CPP
